Datannery: Deutschland Tour 2024
…
df_stages_pro <- mutate(df_stages, across(c(lon, lat, elevation), function(x) parse_number(x)))

Analysis

Turn data frame into a sf (Pebesma 2018) object:

sf_stages <- st_as_sf(df_stages_pro, coords = c("lon", "lat"), 
     crs = st_crs(4326))

Simple feature collection with 40834 features and 3 fields
Geometry type: POINT
Dimension:     XY
Bounding box:  xmin: 6.97561 ymin: 48.05465 xmax: 10.25127 ymax: 50.04494
Geodetic CRS:  WGS 84
# A tibble: 40,834 × 4
   stage_id elevation point_nr            geometry
 * <chr>        <dbl>    <int>         <POINT [°]>
 1 1             238.        1 (10.23479 50.04494)
 2 1             236.        2 (10.23523 50.04476)
 3 1             236.        3 (10.23523 50.04476)
 4 1             233         4 (10.23582 50.04443)
 5 1             233         5 (10.23582 50.04443)
 6 1             233.        6 (10.23637 50.04409)
 7 1             233.        7 (10.23637 50.04409)
 8 1             227.        8 (10.23682 50.04377)
 9 1             227.        9 (10.23682 50.04377)
10 1             228.       10 (10.23678 50.04381)
# ℹ 40,824 more rows
…
